<?xml version="1.0" encoding="UTF-8" standalone="no"?>
<!-- Created with Inkscape (http://www.inkscape.org/) -->

<svg
   xmlns:dc="http://purl.org/dc/elements/1.1/"
   xmlns:cc="http://creativecommons.org/ns#"
   xmlns:rdf="http://www.w3.org/1999/02/22-rdf-syntax-ns#"
   xmlns:svg="http://www.w3.org/2000/svg"
   xmlns="http://www.w3.org/2000/svg"
   xmlns:xlink="http://www.w3.org/1999/xlink"
   xmlns:sodipodi="http://sodipodi.sourceforge.net/DTD/sodipodi-0.dtd"
   xmlns:inkscape="http://www.inkscape.org/namespaces/inkscape"
   width="20"
   height="20"
   id="svg2"
   version="1.1"
   inkscape:version="0.48.5 r10040"
   sodipodi:docname="face-tongue.svg">
  <defs
     id="defs4" />
  <sodipodi:namedview
     id="base"
     pagecolor="#ffffff"
     bordercolor="#666666"
     borderopacity="1.0"
     inkscape:pageopacity="0.0"
     inkscape:pageshadow="2"
     inkscape:zoom="45.254834"
     inkscape:cx="8.959432"
     inkscape:cy="4.0179896"
     inkscape:document-units="px"
     inkscape:current-layer="layer1"
     showgrid="true"
     inkscape:window-width="1920"
     inkscape:window-height="1014"
     inkscape:window-x="0"
     inkscape:window-y="27"
     inkscape:window-maximized="1"
     showborder="false">
    <inkscape:grid
       type="xygrid"
       id="grid2985"
       empspacing="5"
       visible="true"
       enabled="true"
       snapvisiblegridlinesonly="true"
       spacingx="1px"
       spacingy="1px" />
  </sodipodi:namedview>
  <metadata
     id="metadata7">
    <rdf:RDF>
      <cc:Work
         rdf:about="">
        <dc:format>image/svg+xml</dc:format>
        <dc:type
           rdf:resource="http://purl.org/dc/dcmitype/StillImage" />
        <dc:title />
      </cc:Work>
    </rdf:RDF>
  </metadata>
  <g
     inkscape:label="Layer 1"
     inkscape:groupmode="layer"
     id="layer1"
     transform="translate(0,-1032.3622)">
    <g
       transform="translate(-8.4998753e-6,0)"
       id="g3871">
      <path
         transform="matrix(0.91923838,0.91923451,-0.91923838,0.91923451,12.103914,1025.1621)"
         d="M 5,10.5 C 5,11.880712 3.8807119,13 2.5,13 1.1192881,13 0,11.880712 0,10.5 0,9.1192881 1.1192881,8 2.5,8 3.8807119,8 5,9.1192881 5,10.5 z"
         sodipodi:ry="2.5"
         sodipodi:rx="2.5"
         sodipodi:cy="10.5"
         sodipodi:cx="2.5"
         id="path2988"
         style="fill:#f6ce55;fill-opacity:1;stroke:none"
         sodipodi:type="arc" />
      <use
         height="20"
         width="20"
         transform="translate(10.499999,9.2314875e-6)"
         id="use3818"
         xlink:href="#path2988"
         y="0"
         x="0" />
      <path
         d="m 18,11 c 0,4.418278 -3.581722,8 -8,8 -4.418278,0 -8,-3.581722 -8,-8 0,-4.418278 3.581722,-8 8,-8 4.418278,0 8,3.581722 8,8 z"
         sodipodi:ry="8"
         sodipodi:rx="8"
         sodipodi:cy="11"
         sodipodi:cx="10"
         id="path2994"
         style="fill:#f6ce55;fill-opacity:1;stroke:none"
         sodipodi:type="arc"
         transform="translate(0,1031.3622)" />
    </g>
    <path
       style="fill:none;stroke:#4c4c4c;stroke-width:1px;stroke-linecap:round;stroke-linejoin:round;stroke-opacity:1"
       d="m 5.5,1043.8622 9,0"
       id="path3831"
       inkscape:connector-curvature="0" />
    <path
       style="fill:#db3956;fill-opacity:1;stroke:none"
       d="m 8,1044.3622 0,1 c 0,1 0.5,2 2,2 1.5,0 2,-1 2,-2 l 0,-1 z"
       id="path4573"
       inkscape:connector-curvature="0"
       sodipodi:nodetypes="cccccc" />
    <path
       transform="translate(0.10000038,1031.3622)"
       d="m 13.4,8.5 c 0,0.8284271 -0.671573,1.5 -1.5,1.5 -0.828428,0 -1.5,-0.6715729 -1.5,-1.5 0,-0.8284271 0.671572,-1.5 1.5,-1.5 0.828427,0 1.5,0.6715729 1.5,1.5 z"
       sodipodi:ry="1.5"
       sodipodi:rx="1.5"
       sodipodi:cy="8.5"
       sodipodi:cx="11.9"
       id="path3797"
       style="fill:#4c4c4c;fill-opacity:1;stroke:none"
       sodipodi:type="arc" />
    <use
       x="0"
       y="0"
       xlink:href="#path3797"
       id="use3037"
       transform="translate(-4,0)"
       width="20"
       height="20" />
  </g>
</svg>
